<?php
include("../connect.php");

//Select table
//$customerid = addslashes($_GET['id']);
$query = "SELECT * ".
	"FROM customer_systems ".
		"WHERE customerid = $customerid";
$result = mysql_query($query);
?>
<h3>Systems <a href="createSystem.php?id=<?echo $customerid;?>"> [create]</a></h3>
<?
echo "<table class='bordered'>
<tr>
<th>System Type</th>
<th>Contracted?</th>
<th>Contract Date</th>
<th>Monitoring Type</th>
<th>Monitoring Account</th>
<th>Price Ex VAT</th>
<th>Site Address</th>
<th></th>
</tr>";

while($row = mysql_fetch_array($result))
	{
	$address = $row['system_address_door_number']. " ". $row['system_address_street_name'] . ", " . $row['system_address_town']. ", " . $row['system_address_county']. ", " . $row['system_address_postcode'];
		$systemid = $row['system_id'];
	  echo "<tr>";
	  echo "<td>" . $row['system_type']. "</td>";
	  echo "<td>" . $row['system_contracted'] . "</td>";
	  echo "<td>" . $row['system_contract_date'] . "</td>";
	  echo "<td>" . $row['system_monitoring_type'] . "</td>";
	  echo "<td>" . $row['system_monitoring_accnt_num'] . "</td>";
	  echo "<td>" . $row['system_price_ex_vat'] . "</td>";
	  echo "<td>" . $address . "</td>";
	  echo "<td><a href=viewSystem.php?cid=" .$customerid . "&sid=" . $systemid . ">view</a>/<a href=updateSystem.php?id=" . $systemid . ">edit</a></td>";
	  echo "</tr>";
	}
	
mysql_close($conn);
?>